MATH/COSC 3570 - Spring 2026 – Data Importing
…
Writing Data

head(iris, n = 3)

  Sepal.Length Sepal.Width Petal.Length Petal.Width Species
1          5.1         3.5          1.4         0.2  setosa
2          4.9         3.0          1.4         0.2  setosa
3          4.7         3.2          1.3         0.2  setosa

## save iris data to "./data/iris.csv"
iris |> write_csv(file = "./data/iris.csv")
df_iris <- read_csv(file = "./data/iris.csv")
df_iris

# A tibble: 150 × 5
  Sepal.Length Sepal.Width Petal.Length Petal.Width Species
         <dbl>       <dbl>        <dbl>       <dbl> <chr>  
1          5.1         3.5          1.4         0.2 setosa 
2          4.9         3            1.4         0.2 setosa 
3          4.7         3.2          1.3         0.2 setosa 
4          4.6         3.1          1.5         0.2 setosa 
5          5           3.6          1.4         0.2 setosa 
6          5.4         3.9          1.7         0.4 setosa 
7          4.6         3.4          1.4         0.3 setosa 
8          5           3.4          1.5         0.2 setosa 
# ℹ 142 more rows
…
If you don’t want open your excel file and check its sheet names, the excel_sheets() function gives us the names of all the sheets in an Excel file.

Sheet Names

The sheet names can be passed to the sheet argument to read sheets other than the first.

excel_sheets("./data/2010_bigfive_regents.xls")

[1] "Sheet1" "Sheet2" "Sheet3"

(data_xls <- read_xls(path = "./data/2010_bigfive_regents.xls", 
                      sheet = "Sheet3", 
                      skip = 1))

# A tibble: 19 × 6
  Scores `131024` `113804` `104201` `103886` `91756`
   <dbl>    <dbl>    <dbl>    <dbl>    <dbl>   <dbl>
1     10       NA       64        8      227      34
2     11        6       83       11      217      58
3     12       23       87        7       28      67
4     13        1       54       16      230      42
5     14        3      145       18      303      57
6     15       58      151       50      192      98
7     16        1      129       13      156     125
8     17       73      214       59      163     115
# ℹ 11 more rows
…
