Tidying Data 🧹 – MATH/COSC 3570 - Spring 2026
…
Source: FiveThirtyEight

 17-tidyr 

In lab.qmd ## Lab 17 section,

Import trump.csv. Call it trump_data as below on the left.

Use pivot_longer() to transform trump_data into the data set trump_longer on the right.

trump_data

# A tibble: 2,702 × 4
  subgroup date       approval disapproval
  <chr>    <date>        <dbl>       <dbl>
1 Voters   2020-10-04     44.7        52.2
2 Adults   2020-10-04     43.2        52.6
3 Adults   2020-10-03     43.2        52.6
4 Voters   2020-10-03     45.0        51.7
5 Adults   2020-10-02     43.3        52.4
6 Voters   2020-10-02     44.5        52.1
# ℹ 2,696 more rows

trump_longer <- ______________
    pivot_longer(
        cols = ____________,
        names_to = _______________,
        values_to = _______________
    ) 

# A tibble: 5,404 × 4
  subgroup date       rating_type rating_value
  <chr>    <date>     <chr>              <dbl>
1 Voters   2020-10-04 approval            44.7
2 Voters   2020-10-04 disapproval         52.2
3 Adults   2020-10-04 approval            43.2
4 Adults   2020-10-04 disapproval         52.6
5 Adults   2020-10-03 approval            43.2
6 Adults   2020-10-03 disapproval         52.6
# ℹ 5,398 more rows
…
