Logistic Regression – MATH/COSC 3570 - Spring 2026
…
roc_df <- tibble(truth = gender_true,
                 prob = 1 - pred_prob,
                 pred = gender_pred)
roc_df

# A tibble: 300 × 3
  truth   prob  pred
  <fct>  <dbl> <dbl>
1 0     0.263      1
2 1     0.0120     1
3 0     0.962      0
4 1     0.852      0
5 1     0.0617     1
6 1     0.562      0
# ℹ 294 more rows
…
