In-Class Lab Exercises – MATH/COSC 3570 - Spring 2026
…
diamond_color <- read_csv("https://www.jaredlander.com/data/DiamondColors.csv")

Rows: 10 Columns: 3
── Column specification ────────────────────────────────────────────────────────
Delimiter: ","
chr (3): Color, Description, Details

ℹ Use `spec()` to retrieve the full column specification for this data.
ℹ Specify the column types or set `show_col_types = FALSE` to quiet this message.

joined_df <- left_join(diamonds, diamond_color, by = c('color' = 'Color')) |> 
    select(carat, color, price, Description, Details)
joined_df

# A tibble: 53,940 × 5
   carat color price Description    Details                    
   <dbl> <chr> <int> <chr>          <chr>                      
 1  0.23 E       326 Colorless      Minute traces of color     
 2  0.21 E       326 Colorless      Minute traces of color     
 3  0.23 E       327 Colorless      Minute traces of color     
 4  0.29 I       334 Near Colorless Slightly detectable color  
 5  0.31 J       335 Near Colorless Slightly detectable color  
 6  0.24 J       336 Near Colorless Slightly detectable color  
 7  0.24 I       336 Near Colorless Slightly detectable color  
 8  0.26 H       337 Near Colorless Color is dificult to detect
 9  0.22 E       337 Colorless      Minute traces of color     
10  0.23 H       338 Near Colorless Color is dificult to detect
# ℹ 53,930 more rows
…
