Mini Project 2 – MATH/COSC 3570 - Spring 2026
…
In the raw data, one row represents one song, but the weekly ranks are spread across many columns. This means the structure is wide rather than tidy. The data are usable for storage, but not convenient for analysis of change over time.

3.2 Missing values

missing_counts <- data_raw |>
  summarise(across(everything(), ~ sum(is.na(.x)))) |>
  pivot_longer(cols = everything(), names_to = "variable", values_to = "n_missing") |>
  arrange(desc(n_missing))

missing_counts

# A tibble: 79 × 2
   variable n_missing
   <chr>        <int>
 1 wk66           317
 2 wk67           317
 3 wk68           317
 4 wk69           317
 5 wk70           317
 6 wk71           317
 7 wk72           317
 8 wk73           317
 9 wk74           317
10 wk75           317
# ℹ 69 more rows
…
data

# A tibble: 5,307 × 6
   artist_name song_title             chart_entry_date  week  rank date_on_chart
   <chr>       <chr>                  <date>           <dbl> <int> <date>       
 1 2 Pac       Baby Don't Cry (Keep.… 2000-02-26           1    87 2000-02-26   
 2 2 Pac       Baby Don't Cry (Keep.… 2000-02-26           2    82 2000-03-04   
 3 2 Pac       Baby Don't Cry (Keep.… 2000-02-26           3    72 2000-03-11   
 4 2 Pac       Baby Don't Cry (Keep.… 2000-02-26           4    77 2000-03-18   
 5 2 Pac       Baby Don't Cry (Keep.… 2000-02-26           5    87 2000-03-25   
 6 2 Pac       Baby Don't Cry (Keep.… 2000-02-26           6    94 2000-04-01   
 7 2 Pac       Baby Don't Cry (Keep.… 2000-02-26           7    99 2000-04-08   
 8 2Ge+her     The Hardest Part Of .… 2000-09-02           1    91 2000-09-02   
 9 2Ge+her     The Hardest Part Of .… 2000-09-02           2    87 2000-09-09   
10 2Ge+her     The Hardest Part Of .… 2000-09-02           3    92 2000-09-16   
# ℹ 5,297 more rows
…
